[api-updater (non-obsolete-error-filter)] 03/04/2021 13:57:38 : Starting C:/Program Files/Unity/Hub/Editor/2020.3.2f1/Editor/Data/Tools/ScriptUpdater/APIUpdater.NonObsoleteApiUpdaterDetector.exe
[api-updater (non-obsolete-error-filter)] 
----------------------------------
jit/startup time      : 176.5282ms
moved types parse time: 52ms
candidates parse time : 0ms
C# parse time         : 199ms
candidates check time : 27ms
console write time    : 0ms

[api-updater (non-obsolete-error-filter)] 03/04/2021 13:58:14 : Starting C:/Program Files/Unity/Hub/Editor/2020.3.2f1/Editor/Data/Tools/ScriptUpdater/APIUpdater.NonObsoleteApiUpdaterDetector.exe
[api-updater (non-obsolete-error-filter)] 
----------------------------------
jit/startup time      : 68.8162ms
moved types parse time: 46ms
candidates parse time : 1ms
C# parse time         : 157ms
candidates check time : 24ms
console write time    : 0ms

[api-updater (non-obsolete-error-filter)] 03/04/2021 14:00:39 : Starting C:/Program Files/Unity/Hub/Editor/2020.3.2f1/Editor/Data/Tools/ScriptUpdater/APIUpdater.NonObsoleteApiUpdaterDetector.exe
[api-updater (non-obsolete-error-filter)] 
----------------------------------
jit/startup time      : 68.8163ms
moved types parse time: 43ms
candidates parse time : 1ms
C# parse time         : 151ms
candidates check time : 26ms
console write time    : 0ms

[api-updater (non-obsolete-error-filter)] 03/04/2021 14:01:09 : Starting C:/Program Files/Unity/Hub/Editor/2020.3.2f1/Editor/Data/Tools/ScriptUpdater/APIUpdater.NonObsoleteApiUpdaterDetector.exe
[api-updater (non-obsolete-error-filter)] 
----------------------------------
jit/startup time      : 69.8134ms
moved types parse time: 42ms
candidates parse time : 0ms
C# parse time         : 150ms
candidates check time : 46ms
console write time    : 0ms

[api-updater (non-obsolete-error-filter)] 03/04/2021 14:01:35 : Starting C:/Program Files/Unity/Hub/Editor/2020.3.2f1/Editor/Data/Tools/ScriptUpdater/APIUpdater.NonObsoleteApiUpdaterDetector.exe
[api-updater (non-obsolete-error-filter)] 
----------------------------------
jit/startup time      : 68.816ms
moved types parse time: 43ms
candidates parse time : 1ms
C# parse time         : 159ms
candidates check time : 28ms
console write time    : 0ms

[api-updater (non-obsolete-error-filter)] 03/04/2021 14:03:42 : Starting C:/Program Files/Unity/Hub/Editor/2020.3.2f1/Editor/Data/Tools/ScriptUpdater/APIUpdater.NonObsoleteApiUpdaterDetector.exe
[api-updater (non-obsolete-error-filter)] 
----------------------------------
jit/startup time      : 67.8188ms
moved types parse time: 41ms
candidates parse time : 0ms
C# parse time         : 151ms
candidates check time : 28ms
console write time    : 0ms

[api-updater (non-obsolete-error-filter)] 03/04/2021 14:04:33 : Starting C:/Program Files/Unity/Hub/Editor/2020.3.2f1/Editor/Data/Tools/ScriptUpdater/APIUpdater.NonObsoleteApiUpdaterDetector.exe
[api-updater (non-obsolete-error-filter)] 
----------------------------------
jit/startup time      : 70.8111ms
moved types parse time: 42ms
candidates parse time : 0ms
C# parse time         : 162ms
candidates check time : 27ms
console write time    : 0ms

[api-updater (non-obsolete-error-filter)] 03/04/2021 14:05:34 : Starting C:/Program Files/Unity/Hub/Editor/2020.3.2f1/Editor/Data/Tools/ScriptUpdater/APIUpdater.NonObsoleteApiUpdaterDetector.exe
[api-updater (non-obsolete-error-filter)] 
----------------------------------
jit/startup time      : 69.8131ms
moved types parse time: 41ms
candidates parse time : 0ms
C# parse time         : 155ms
candidates check time : 26ms
console write time    : 0ms

[api-updater (non-obsolete-error-filter)] 03/04/2021 14:07:14 : Starting C:/Program Files/Unity/Hub/Editor/2020.3.2f1/Editor/Data/Tools/ScriptUpdater/APIUpdater.NonObsoleteApiUpdaterDetector.exe
[api-updater (non-obsolete-error-filter)] 
----------------------------------
jit/startup time      : 67.8189ms
moved types parse time: 43ms
candidates parse time : 0ms
C# parse time         : 161ms
candidates check time : 26ms
console write time    : 0ms

[api-updater (non-obsolete-error-filter)] 03/04/2021 14:55:50 : Starting C:/Program Files/Unity/Hub/Editor/2020.3.2f1/Editor/Data/Tools/ScriptUpdater/APIUpdater.NonObsoleteApiUpdaterDetector.exe
[api-updater (non-obsolete-error-filter)] 
----------------------------------
jit/startup time      : 66.8213ms
moved types parse time: 41ms
candidates parse time : 0ms
C# parse time         : 190ms
candidates check time : 38ms
console write time    : 0ms

[api-updater (non-obsolete-error-filter)] 03/04/2021 15:05:10 : Starting C:/Program Files/Unity/Hub/Editor/2020.3.2f1/Editor/Data/Tools/ScriptUpdater/APIUpdater.NonObsoleteApiUpdaterDetector.exe
[api-updater (non-obsolete-error-filter)] 
----------------------------------
jit/startup time      : 67.8187ms
moved types parse time: 41ms
candidates parse time : 0ms
C# parse time         : 178ms
candidates check time : 41ms
console write time    : 0ms

[api-updater (non-obsolete-error-filter)] 03/04/2021 15:57:39 : Starting C:/Program Files/Unity/Hub/Editor/2020.3.2f1/Editor/Data/Tools/ScriptUpdater/APIUpdater.NonObsoleteApiUpdaterDetector.exe
[api-updater (non-obsolete-error-filter)] 
----------------------------------
jit/startup time      : 69.8131ms
moved types parse time: 41ms
candidates parse time : 1ms
C# parse time         : 178ms
candidates check time : 44ms
console write time    : 0ms

[api-updater (non-obsolete-error-filter)] 03/04/2021 15:58:03 : Starting C:/Program Files/Unity/Hub/Editor/2020.3.2f1/Editor/Data/Tools/ScriptUpdater/APIUpdater.NonObsoleteApiUpdaterDetector.exe
[api-updater (non-obsolete-error-filter)] 
----------------------------------
jit/startup time      : 67.8189ms
moved types parse time: 41ms
candidates parse time : 1ms
C# parse time         : 178ms
candidates check time : 39ms
console write time    : 0ms

[api-updater (non-obsolete-error-filter)] 03/04/2021 16:00:22 : Starting C:/Program Files/Unity/Hub/Editor/2020.3.2f1/Editor/Data/Tools/ScriptUpdater/APIUpdater.NonObsoleteApiUpdaterDetector.exe
[api-updater (non-obsolete-error-filter)] 
----------------------------------
jit/startup time      : 67.8188ms
moved types parse time: 41ms
candidates parse time : 1ms
C# parse time         : 179ms
candidates check time : 39ms
console write time    : 0ms

[api-updater (non-obsolete-error-filter)] 03/04/2021 16:30:20 : Starting C:/Program Files/Unity/Hub/Editor/2020.3.2f1/Editor/Data/Tools/ScriptUpdater/APIUpdater.NonObsoleteApiUpdaterDetector.exe
[api-updater (non-obsolete-error-filter)] 
----------------------------------
jit/startup time      : 71.8082ms
moved types parse time: 42ms
candidates parse time : 0ms
C# parse time         : 180ms
candidates check time : 41ms
console write time    : 0ms

[api-updater (non-obsolete-error-filter)] 03/04/2021 16:45:03 : Starting C:/Program Files/Unity/Hub/Editor/2020.3.2f1/Editor/Data/Tools/ScriptUpdater/APIUpdater.NonObsoleteApiUpdaterDetector.exe
[api-updater (non-obsolete-error-filter)] 
----------------------------------
jit/startup time      : 71.8081ms
moved types parse time: 42ms
candidates parse time : 1ms
C# parse time         : 182ms
candidates check time : 37ms
console write time    : 0ms

[api-updater (non-obsolete-error-filter)] 03/04/2021 16:45:16 : Starting C:/Program Files/Unity/Hub/Editor/2020.3.2f1/Editor/Data/Tools/ScriptUpdater/APIUpdater.NonObsoleteApiUpdaterDetector.exe
[api-updater (non-obsolete-error-filter)] 
----------------------------------
jit/startup time      : 71.8081ms
moved types parse time: 42ms
candidates parse time : 1ms
C# parse time         : 178ms
candidates check time : 124ms
console write time    : 0ms

[api-updater (non-obsolete-error-filter)] 03/04/2021 16:45:27 : Starting C:/Program Files/Unity/Hub/Editor/2020.3.2f1/Editor/Data/Tools/ScriptUpdater/APIUpdater.NonObsoleteApiUpdaterDetector.exe
[api-updater (non-obsolete-error-filter)] 
----------------------------------
jit/startup time      : 68.8158ms
moved types parse time: 41ms
candidates parse time : 0ms
C# parse time         : 179ms
candidates check time : 37ms
console write time    : 0ms

[api-updater (non-obsolete-error-filter)] 03/04/2021 19:18:36 : Starting C:/Program Files/Unity/Hub/Editor/2020.3.2f1/Editor/Data/Tools/ScriptUpdater/APIUpdater.NonObsoleteApiUpdaterDetector.exe
[api-updater (non-obsolete-error-filter)] 
----------------------------------
jit/startup time      : 69.8127ms
moved types parse time: 41ms
candidates parse time : 0ms
C# parse time         : 178ms
candidates check time : 37ms
console write time    : 0ms

[api-updater (non-obsolete-error-filter)] 03/04/2021 19:36:51 : Starting C:/Program Files/Unity/Hub/Editor/2020.3.2f1/Editor/Data/Tools/ScriptUpdater/APIUpdater.NonObsoleteApiUpdaterDetector.exe
[api-updater (non-obsolete-error-filter)] 
----------------------------------
jit/startup time      : 68.8156ms
moved types parse time: 42ms
candidates parse time : 1ms
C# parse time         : 177ms
candidates check time : 38ms
console write time    : 0ms

[api-updater (non-obsolete-error-filter)] 03/04/2021 19:40:07 : Starting C:/Program Files/Unity/Hub/Editor/2020.3.2f1/Editor/Data/Tools/ScriptUpdater/APIUpdater.NonObsoleteApiUpdaterDetector.exe
[api-updater (non-obsolete-error-filter)] 
----------------------------------
jit/startup time      : 68.8158ms
moved types parse time: 41ms
candidates parse time : 1ms
C# parse time         : 182ms
candidates check time : 40ms
console write time    : 0ms

[api-updater (non-obsolete-error-filter)] 03/04/2021 20:28:07 : Starting C:/Program Files/Unity/Hub/Editor/2020.3.2f1/Editor/Data/Tools/ScriptUpdater/APIUpdater.NonObsoleteApiUpdaterDetector.exe
[api-updater (non-obsolete-error-filter)] 
----------------------------------
jit/startup time      : 78.7878ms
moved types parse time: 46ms
candidates parse time : 1ms
C# parse time         : 192ms
candidates check time : 67ms
console write time    : 0ms

[api-updater (non-obsolete-error-filter)] 03/04/2021 20:28:56 : Starting C:/Program Files/Unity/Hub/Editor/2020.3.2f1/Editor/Data/Tools/ScriptUpdater/APIUpdater.NonObsoleteApiUpdaterDetector.exe
[api-updater (non-obsolete-error-filter)] 
----------------------------------
jit/startup time      : 67.3269ms
moved types parse time: 42ms
candidates parse time : 0ms
C# parse time         : 196ms
candidates check time : 48ms
console write time    : 0ms

[api-updater (non-obsolete-error-filter)] 06/04/2021 02:29:27 : Starting C:/Program Files/Unity/Hub/Editor/2020.3.2f1/Editor/Data/Tools/ScriptUpdater/APIUpdater.NonObsoleteApiUpdaterDetector.exe
[api-updater (non-obsolete-error-filter)] 
----------------------------------
jit/startup time      : 209.4398ms
moved types parse time: 50ms
candidates parse time : 1ms
C# parse time         : 245ms
candidates check time : 48ms
console write time    : 1ms

[api-updater (non-obsolete-error-filter)] 06/04/2021 02:30:50 : Starting C:/Program Files/Unity/Hub/Editor/2020.3.2f1/Editor/Data/Tools/ScriptUpdater/APIUpdater.NonObsoleteApiUpdaterDetector.exe
[api-updater (non-obsolete-error-filter)] 
----------------------------------
jit/startup time      : 75.798ms
moved types parse time: 43ms
candidates parse time : 0ms
C# parse time         : 197ms
candidates check time : 45ms
console write time    : 0ms

[api-updater (non-obsolete-error-filter)] 06/04/2021 02:31:38 : Starting C:/Program Files/Unity/Hub/Editor/2020.3.2f1/Editor/Data/Tools/ScriptUpdater/APIUpdater.NonObsoleteApiUpdaterDetector.exe
[api-updater (non-obsolete-error-filter)] 
----------------------------------
jit/startup time      : 77.7922ms
moved types parse time: 44ms
candidates parse time : 1ms
C# parse time         : 196ms
candidates check time : 59ms
console write time    : 0ms

